Tidytext
…
Climate and change were yet again the most used words for this publication, like the others. However, The Global and Mail had a few different words that occurred the most - canada, global, and carbon. As it is a Canadian publication, it makes sense that Canada was mentioned often. Many other scietific terms were mentioned most often - including: carbon, warming, emissions, water, and energy.

Analyzing the Sentiment

Now that we have prepared the data for use, we can begin our sentiment analysis. For the purposes of our analysis, we will be using the afinn, bing, and nrc lexicon from the text data package. From here, we can perform an inner join on the data set and the three different lexicons to get varying information on the sentiments. The afinn lexicon provides a numerical representation of the sentiment, where the sign represents intuitively a positive or negative sentiment, and the magnitude represents the strength of the sentiment. Bing provides a binary classification: the word is either positive or negative. Lastly, nrc provides more specific sentiments that surround a word; this will likely be the most informative and where we can extract the most meaningful conclusions. 

We can graphically and numerically analyze the sentiments looking at a distribution of the afinn sentiment results.

Usa Today Sentiment Table

## Joining, by = "word"

## # A tibble: 760 x 3
##    word          n value
##    <chr>     <int> <dbl>
##  1 united      204     1
##  2 natural     106     1
##  3 severe       59    -2
##  4 increase     55     1
##  5 increased    51     1
##  6 risk         45    -2
##  7 cut          44    -1
##  8 agreement    39     1
##  9 crisis       39    -3
## 10 disasters    39    -2
## #  with 750 more rows

The tabled list includes the words and their counts, as well as their sentiment values that will be put into a ggplot graph later. The most used words were united, natural, severe, increase(d), and risk. These words represent negative and positive sentiment pretty evenly, however, as we move along the table, more negative sentiment is noted.

NYT Sentiments Table

## Joining, by = "word"

## # A tibble: 1,645 x 3
##    word        n value
##    <chr>   <int> <dbl>
##  1 united    632     1
##  2 care      366     2
##  3 war       330    -2
##  4 love      320     3
##  5 support   293     2
##  6 true      287     2
##  7 agree     281     1
##  8 bad       277    -3
##  9 pretty    255     1
## 10 stop      242    -1
## #  with 1,635 more rows

Looking first at our tabled results from the bing lexicon, we see overwhelming more negative sentiment surrounding climate change. Furthermore, diving deeper, looking at the nrc, we see words associated with sentiments and feelings such as anger, disgust, and even fear appearing frequently within these articles. This bolsters our original thoughts from the beginning of the lab; it appears that there is a sentiment of anxiousness and fear surrounding climate change. We can then further analyze these findings by looking at some graphical representations; this is where the afinn results will be helpful.

Fox News Sentiment Table

## Joining, by = "word"

## # A tibble: 1,064 x 3
##    word         n value
##    <chr>    <int> <dbl>
##  1 united     273     1
##  2 natural    199     1
##  3 fire       159    -2
##  4 risk       142    -2
##  5 matter     140     1
##  6 risks       86    -2
##  7 top         77     2
##  8 crisis      75    -3
##  9 increase    75     1
## 10 threat      70    -2
## #  with 1,054 more rows

The table shows sentiment values regarding words in articles from Fox News. There is clearly an imbalance towards negative sentiment, as the words with negative sentiment saw high negative values. Positive sentiment words in the table include united, natural, matter, top, and increase. Negative sentiment words in the table include fire, risk(s), crisis, and threat.

The Australian Sentiment Table

## Joining, by = "word"

## # A tibble: 822 x 3
##    word            n value
##    <chr>       <int> <dbl>
##  1 risk          125    -2
##  2 limited       107    -1
##  3 risks          88    -2
##  4 natural        75     1
##  5 increase       71     1
##  6 increased      50     1
##  7 support        50     2
##  8 significant    47     1
##  9 fire           39    -2
## 10 challenge      38    -1
## #  with 812 more rows

The table created indicates a slight favoring of negative sentiment in The Australian regarding climate change. Each of the top three (risk, limited, andrisks") registered negative sentiment - immediately indicating the tone of the publication.

The Guardian Sentiment Table

## Joining, by = "word"

## # A tibble: 1,155 x 3
##    word           n value
##    <chr>      <int> <dbl>
##  1 block       1448    -1
##  2 strike       304    -1
##  3 crisis       297    -3
##  4 support      241     2
##  5 fire         234    -2
##  6 growth       166     2
##  7 emergency    151    -2
##  8 risk         145    -2
##  9 agreement    140     1
## 10 protesters   138    -2
## #  with 1,145 more rows

The table shown indicates a major negative sentiment in The Guardian. Most importantly, the word block was used 1448 times with a negative sentiment. This could be in regards to climate change legislation that didnt get written into law. Other words, like strike, crisis, fire, and "emergency added to this negative sentiment.

The Global and Mail Sentiment Table

## Joining, by = "word"

## # A tibble: 976 x 3
##    word          n value
##    <chr>     <int> <dbl>
##  1 risk        141    -2
##  2 united      117     1
##  3 risks        91    -2
##  4 natural      83     1
##  5 increase     68     1
##  6 growing      57     1
##  7 crisis       54    -3
##  8 threat       53    -2
##  9 support      51     2
## 10 increased    47     1
## #  with 966 more rows
…
